^C:\USERS\ACER ASPIRE E5-571G\DOCUMENTS\VISUAL STUDIO 2015\PROJECTS\ПРОЕКТXXX\ПРОЕКТXXX\DEBUG\SOURCE.OBJ
C:\USERS\ACER ASPIRE E5-571G\DOCUMENTS\VISUAL STUDIO 2015\PROJECTS\ПроектXXX\DEBUG\ПроектXXX.ILK
C:\USERS\ACER ASPIRE E5-571G\DOCUMENTS\VISUAL STUDIO 2015\PROJECTS\ПроектXXX\DEBUG\ПроектXXX.EXE
C:\USERS\ACER ASPIRE E5-571G\DOCUMENTS\VISUAL STUDIO 2015\PROJECTS\ПРОЕКТXXX\DEBUG\ПРОЕКТXXX.PDB
